/Users/marinellmedina/Downloads/jhipsterTest2/src/main/java/io/nellmedina/jhipster/config/WebConfigurer.java
/Users/marinellmedina/Downloads/jhipsterTest2/src/main/java/io/nellmedina/jhipster/web/rest/UserResource.java
/Users/marinellmedina/Downloads/jhipsterTest2/src/main/java/io/nellmedina/jhipster/JhipsterTest2App.java
/Users/marinellmedina/Downloads/jhipsterTest2/src/main/java/io/nellmedina/jhipster/web/rest/util/HeaderUtil.java
/Users/marinellmedina/Downloads/jhipsterTest2/src/main/java/io/nellmedina/jhipster/security/package-info.java
/Users/marinellmedina/Downloads/jhipsterTest2/src/main/java/io/nellmedina/jhipster/config/audit/package-info.java
/Users/marinellmedina/Downloads/jhipsterTest2/src/main/java/io/nellmedina/jhipster/web/rest/errors/FieldErrorVM.java
/Users/marinellmedina/Downloads/jhipsterTest2/src/main/java/io/nellmedina/jhipster/web/rest/errors/BadRequestAlertException.java
/Users/marinellmedina/Downloads/jhipsterTest2/src/main/java/io/nellmedina/jhipster/web/rest/errors/ExceptionTranslator.java
/Users/marinellmedina/Downloads/jhipsterTest2/src/main/java/io/nellmedina/jhipster/config/DatabaseConfiguration.java
/Users/marinellmedina/Downloads/jhipsterTest2/src/main/java/io/nellmedina/jhipster/web/rest/util/PaginationUtil.java
/Users/marinellmedina/Downloads/jhipsterTest2/src/main/java/io/nellmedina/jhipster/config/MetricsConfiguration.java
/Users/marinellmedina/Downloads/jhipsterTest2/src/main/java/io/nellmedina/jhipster/ApplicationWebXml.java
/Users/marinellmedina/Downloads/jhipsterTest2/src/main/java/io/nellmedina/jhipster/web/rest/vm/LoggerVM.java
/Users/marinellmedina/Downloads/jhipsterTest2/src/main/java/io/nellmedina/jhipster/service/mapper/package-info.java
/Users/marinellmedina/Downloads/jhipsterTest2/src/main/java/io/nellmedina/jhipster/config/JacksonConfiguration.java
/Users/marinellmedina/Downloads/jhipsterTest2/src/main/java/io/nellmedina/jhipster/web/rest/errors/InvalidPasswordException.java
/Users/marinellmedina/Downloads/jhipsterTest2/src/main/java/io/nellmedina/jhipster/config/dbmigrations/InitialSetupMigration.java
/Users/marinellmedina/Downloads/jhipsterTest2/src/main/java/io/nellmedina/jhipster/service/package-info.java
/Users/marinellmedina/Downloads/jhipsterTest2/src/main/java/io/nellmedina/jhipster/web/rest/errors/InternalServerErrorException.java
/Users/marinellmedina/Downloads/jhipsterTest2/src/main/java/io/nellmedina/jhipster/domain/User.java
/Users/marinellmedina/Downloads/jhipsterTest2/src/main/java/io/nellmedina/jhipster/domain/Authority.java
/Users/marinellmedina/Downloads/jhipsterTest2/src/main/java/io/nellmedina/jhipster/repository/UserRepository.java
/Users/marinellmedina/Downloads/jhipsterTest2/src/main/java/io/nellmedina/jhipster/web/rest/errors/EmailAlreadyUsedException.java
/Users/marinellmedina/Downloads/jhipsterTest2/src/main/java/io/nellmedina/jhipster/repository/PersistenceAuditEventRepository.java
/Users/marinellmedina/Downloads/jhipsterTest2/src/main/java/io/nellmedina/jhipster/config/Constants.java
/Users/marinellmedina/Downloads/jhipsterTest2/src/main/java/io/nellmedina/jhipster/config/LocaleConfiguration.java
/Users/marinellmedina/Downloads/jhipsterTest2/src/main/java/io/nellmedina/jhipster/web/rest/errors/ErrorConstants.java
/Users/marinellmedina/Downloads/jhipsterTest2/src/main/java/io/nellmedina/jhipster/web/rest/errors/package-info.java
/Users/marinellmedina/Downloads/jhipsterTest2/src/main/java/io/nellmedina/jhipster/web/rest/errors/EmailNotFoundException.java
/Users/marinellmedina/Downloads/jhipsterTest2/src/main/java/io/nellmedina/jhipster/service/UserService.java
/Users/marinellmedina/Downloads/jhipsterTest2/src/main/java/io/nellmedina/jhipster/web/rest/LogsResource.java
/Users/marinellmedina/Downloads/jhipsterTest2/src/main/java/io/nellmedina/jhipster/security/SpringSecurityAuditorAware.java
/Users/marinellmedina/Downloads/jhipsterTest2/src/main/java/io/nellmedina/jhipster/service/mapper/UserMapper.java
/Users/marinellmedina/Downloads/jhipsterTest2/src/main/java/io/nellmedina/jhipster/web/rest/package-info.java
/Users/marinellmedina/Downloads/jhipsterTest2/src/main/java/io/nellmedina/jhipster/web/rest/vm/package-info.java
/Users/marinellmedina/Downloads/jhipsterTest2/src/main/java/io/nellmedina/jhipster/web/rest/vm/ManagedUserVM.java
/Users/marinellmedina/Downloads/jhipsterTest2/src/main/java/io/nellmedina/jhipster/web/rest/errors/LoginAlreadyUsedException.java
/Users/marinellmedina/Downloads/jhipsterTest2/src/main/java/io/nellmedina/jhipster/aop/logging/LoggingAspect.java
/Users/marinellmedina/Downloads/jhipsterTest2/src/main/java/io/nellmedina/jhipster/domain/PersistentAuditEvent.java
/Users/marinellmedina/Downloads/jhipsterTest2/src/main/java/io/nellmedina/jhipster/domain/package-info.java
/Users/marinellmedina/Downloads/jhipsterTest2/src/main/java/io/nellmedina/jhipster/config/LoggingAspectConfiguration.java
/Users/marinellmedina/Downloads/jhipsterTest2/src/main/java/io/nellmedina/jhipster/config/dbmigrations/package-info.java
/Users/marinellmedina/Downloads/jhipsterTest2/src/main/java/io/nellmedina/jhipster/web/rest/errors/CustomParameterizedException.java
/Users/marinellmedina/Downloads/jhipsterTest2/src/main/java/io/nellmedina/jhipster/config/SecurityConfiguration.java
/Users/marinellmedina/Downloads/jhipsterTest2/src/main/java/io/nellmedina/jhipster/config/AsyncConfiguration.java
/Users/marinellmedina/Downloads/jhipsterTest2/src/main/java/io/nellmedina/jhipster/web/rest/AccountResource.java
/Users/marinellmedina/Downloads/jhipsterTest2/src/main/java/io/nellmedina/jhipster/web/rest/AuditResource.java
/Users/marinellmedina/Downloads/jhipsterTest2/src/main/java/io/nellmedina/jhipster/service/dto/UserDTO.java
/Users/marinellmedina/Downloads/jhipsterTest2/src/main/java/io/nellmedina/jhipster/config/audit/AuditEventConverter.java
/Users/marinellmedina/Downloads/jhipsterTest2/src/main/java/io/nellmedina/jhipster/repository/CustomAuditEventRepository.java
/Users/marinellmedina/Downloads/jhipsterTest2/src/main/java/io/nellmedina/jhipster/security/AuthoritiesConstants.java
/Users/marinellmedina/Downloads/jhipsterTest2/src/main/java/io/nellmedina/jhipster/security/SecurityUtils.java
/Users/marinellmedina/Downloads/jhipsterTest2/src/main/java/io/nellmedina/jhipster/config/DateTimeFormatConfiguration.java
/Users/marinellmedina/Downloads/jhipsterTest2/src/main/java/io/nellmedina/jhipster/config/DefaultProfileUtil.java
/Users/marinellmedina/Downloads/jhipsterTest2/src/main/java/io/nellmedina/jhipster/config/LoggingConfiguration.java
/Users/marinellmedina/Downloads/jhipsterTest2/src/main/java/io/nellmedina/jhipster/security/OAuth2AuthenticationSuccessHandler.java
/Users/marinellmedina/Downloads/jhipsterTest2/src/main/java/io/nellmedina/jhipster/service/dto/package-info.java
/Users/marinellmedina/Downloads/jhipsterTest2/src/main/java/io/nellmedina/jhipster/config/ApplicationProperties.java
/Users/marinellmedina/Downloads/jhipsterTest2/src/main/java/io/nellmedina/jhipster/config/package-info.java
/Users/marinellmedina/Downloads/jhipsterTest2/src/main/java/io/nellmedina/jhipster/repository/AuthorityRepository.java
/Users/marinellmedina/Downloads/jhipsterTest2/src/main/java/io/nellmedina/jhipster/service/AuditEventService.java
/Users/marinellmedina/Downloads/jhipsterTest2/src/main/java/io/nellmedina/jhipster/config/OAuth2Configuration.java
/Users/marinellmedina/Downloads/jhipsterTest2/src/main/java/io/nellmedina/jhipster/repository/package-info.java
/Users/marinellmedina/Downloads/jhipsterTest2/src/main/java/io/nellmedina/jhipster/config/CacheConfiguration.java
/Users/marinellmedina/Downloads/jhipsterTest2/src/main/java/io/nellmedina/jhipster/domain/AbstractAuditingEntity.java
/Users/marinellmedina/Downloads/jhipsterTest2/src/main/java/io/nellmedina/jhipster/config/CloudDatabaseConfiguration.java
